{
    "name": "Controls",
    "maps": [
        {
            "name": "Gameplay",
            "id": "82c0c0b1-4e7c-49a5-bbce-87c83e8bce63",
            "actions": [
                {
                    "name": "Jump",
                    "type": "PassThrough",
                    "id": "edbfe03c-5595-4248-b497-ec32560a8abd",
                    "expectedControlType": "",
                    "processors": "",
                    "interactions": "Press"
                },
                {
                    "name": "Movement",
                    "type": "Value",
                    "id": "7b81b56a-28c7-4fb5-98fe-68b58cfba12c",
                    "expectedControlType": "Axis",
                    "processors": "Normalize(min=-1,max=1)",
                    "interactions": ""
                }
            ],
            "bindings": [
                {
                    "name": "",
                    "id": "710a45dd-9781-46fe-8c2e-c44f01e4566d",
                    "path": "<Keyboard>/w",
                    "interactions": "",
                    "processors": "",
                    "groups": "Mouse & Keyboard",
                    "action": "Jump",
                    "isComposite": false,
                    "isPartOfComposite": false
                },
                {
                    "name": "",
                    "id": "ddbea385-e77d-4436-b547-eb6fe4e51d4e",
                    "path": "<Keyboard>/upArrow",
                    "interactions": "",
                    "processors": "",
                    "groups": "Mouse & Keyboard",
                    "action": "Jump",
                    "isComposite": false,
                    "isPartOfComposite": false
                },
                {
                    "name": "1D Axis",
                    "id": "27b2e445-b2fb-44c1-a91e-7bc060d93562",
                    "path": "1DAxis",
                    "interactions": "",
                    "processors": "",
                    "groups": "",
                    "action": "Movement",
                    "isComposite": true,
                    "isPartOfComposite": false
                },
                {
                    "name": "negative",
                    "id": "72daf463-6378-43ab-a512-340686bb76f8",
                    "path": "<Keyboard>/a",
                    "interactions": "",
                    "processors": "",
                    "groups": "Mouse & Keyboard",
                    "action": "Movement",
                    "isComposite": false,
                    "isPartOfComposite": true
                },
                {
                    "name": "positive",
                    "id": "e7ca647b-0a07-4ce2-89ba-24da1b968761",
                    "path": "<Keyboard>/d",
                    "interactions": "",
                    "processors": "",
                    "groups": "Mouse & Keyboard",
                    "action": "Movement",
                    "isComposite": false,
                    "isPartOfComposite": true
                },
                {
                    "name": "1D Axis",
                    "id": "7d7af2d1-509f-4b9a-be72-31f5823ba8fc",
                    "path": "1DAxis",
                    "interactions": "",
                    "processors": "",
                    "groups": "",
                    "action": "Movement",
                    "isComposite": true,
                    "isPartOfComposite": false
                },
                {
                    "name": "negative",
                    "id": "bf0454d4-571c-4a2c-a8dd-5cf8269f29cf",
                    "path": "<Keyboard>/leftArrow",
                    "interactions": "",
                    "processors": "",
                    "groups": "Mouse & Keyboard",
                    "action": "Movement",
                    "isComposite": false,
                    "isPartOfComposite": true
                },
                {
                    "name": "positive",
                    "id": "8ebf387d-687c-42e8-b0dd-4dead6d6df74",
                    "path": "<Keyboard>/rightArrow",
                    "interactions": "",
                    "processors": "",
                    "groups": "Mouse & Keyboard",
                    "action": "Movement",
                    "isComposite": false,
                    "isPartOfComposite": true
                }
            ]
        }
    ],
    "controlSchemes": [
        {
            "name": "Mouse & Keyboard",
            "bindingGroup": "Mouse & Keyboard",
            "devices": [
                {
                    "devicePath": "<Mouse>",
                    "isOptional": false,
                    "isOR": false
                },
                {
                    "devicePath": "<Keyboard>",
                    "isOptional": false,
                    "isOR": false
                }
            ]
        }
    ]
}