{
    "name": "Game",
    "references": [
        "GUID:57a6d82589ae03c4cabdc058f719f231",
        "GUID:ba6306d56f3b240879571be967cb9285",
        "GUID:75469ad4d38634e559750d17036d5f7c",
        "GUID:0d0926eecc44b2e4a9eadd7e7ca6c5aa",
        "GUID:6055be8ebefd69e48b49212b09b47b2f"
    ],
    "includePlatforms": [],
    "excludePlatforms": [],
    "allowUnsafeCode": false,
    "overrideReferences": false,
    "precompiledReferences": [],
    "autoReferenced": true,
    "defineConstraints": [],
    "versionDefines": [],
    "noEngineReferences": false
}